{ 
    "_id" : ObjectId("596af36fd0153e16b85a8a8c"), 
    "addedBy" : "superadmin", 
    "imageName" : "event-1500181359631.jpg", 
    "venueAddress" : "Bhandimandal, Jawalakhel", 
    "venue" : "D.A.V College of Management", 
    "eventDescription" : "An exciting and challenging event with a lot of competitions lasting for a week.", 
    "urlSlog" : "event-1", 
    "eventTitle" : "Event 1", 
    "deleted" : false, 
    "addedOn" : ISODate("2017-07-16T05:02:39.695+0000"), 
    "active" : true, 
    "imageProperties" : {
        "imageExtension" : "jpg", 
        "imagePath" : "/var/www/bitbeats/DAV_MBA_School/public/uploads/images/events/event-1500181359631.jpg"
    }, 
    "endDate" : ISODate("2017-07-29T14:15:21.000+0000"), 
    "startDate" : ISODate("2017-07-23T04:15:21.000+0000"), 
    "__v" : NumberInt(0)
}
