{ 
    "_id" : ObjectId("596890e4fb5f01551aa1537f"), 
    "device" : "", 
    "userAgentSource" : "Mozilla/5.0 (X11; Linux x86_64) AppleWebKit/537.36 (KHTML, like Gecko) Ubuntu Chromium/59.0.3071.109 Chrome/59.0.3071.109 Safari/537.36", 
    "operatingSystem" : "Linux x86_64", 
    "ipAddress" : "::ffff:127.0.0.1", 
    "failedLoginAttempt" : NumberInt(0), 
    "userID" : "58497c16072f6c20f4fac319", 
    "failedLogin" : true, 
    "expired" : true, 
    "addedOn" : ISODate("2017-07-14T09:37:40.572+0000"), 
    "__v" : NumberInt(0), 
    "expiredOn" : ISODate("2017-07-14T09:37:53.338+0000")
}
{ 
    "_id" : ObjectId("596890ebfb5f01551aa15381"), 
    "device" : "", 
    "userAgentSource" : "Mozilla/5.0 (X11; Linux x86_64) AppleWebKit/537.36 (KHTML, like Gecko) Ubuntu Chromium/59.0.3071.109 Chrome/59.0.3071.109 Safari/537.36", 
    "operatingSystem" : "Linux x86_64", 
    "ipAddress" : "::ffff:127.0.0.1", 
    "failedLoginAttempt" : NumberInt(0), 
    "userID" : "58497c16072f6c20f4fac319", 
    "failedLogin" : true, 
    "expired" : true, 
    "addedOn" : ISODate("2017-07-14T09:37:47.564+0000"), 
    "__v" : NumberInt(0), 
    "expiredOn" : ISODate("2017-07-14T09:37:53.338+0000")
}
{ 
    "_id" : ObjectId("596890f1fb5f01551aa15383"), 
    "device" : "", 
    "userAgentSource" : "Mozilla/5.0 (X11; Linux x86_64) AppleWebKit/537.36 (KHTML, like Gecko) Ubuntu Chromium/59.0.3071.109 Chrome/59.0.3071.109 Safari/537.36", 
    "operatingSystem" : "Linux x86_64", 
    "ipAddress" : "::ffff:127.0.0.1", 
    "failedLoginAttempt" : NumberInt(0), 
    "userID" : "58497c16072f6c20f4fac319", 
    "failedLogin" : false, 
    "expired" : true, 
    "addedOn" : ISODate("2017-07-14T09:37:53.302+0000"), 
    "__v" : NumberInt(0), 
    "expiredOn" : ISODate("2017-07-14T09:37:53.338+0000")
}
{ 
    "_id" : ObjectId("596af217d0153e16b85a8a8a"), 
    "device" : "", 
    "userAgentSource" : "Mozilla/5.0 (X11; Linux x86_64) AppleWebKit/537.36 (KHTML, like Gecko) Ubuntu Chromium/59.0.3071.109 Chrome/59.0.3071.109 Safari/537.36", 
    "operatingSystem" : "Linux x86_64", 
    "ipAddress" : "::ffff:127.0.0.1", 
    "failedLoginAttempt" : NumberInt(0), 
    "userID" : "58497c16072f6c20f4fac319", 
    "failedLogin" : false, 
    "expired" : false, 
    "addedOn" : ISODate("2017-07-16T04:56:55.372+0000"), 
    "__v" : NumberInt(0)
}
