{ 
    "_id" : ObjectId("5954c396e6203e0dc432ddb9"), 
    "expires" : ISODate("2017-07-06T09:08:38.857+0000"), 
    "token" : "2ce5aad34250943075d6f59a7463158cb34e", 
    "userID" : "5954c394e6203e0dc432ddb8", 
    "confirmed" : false, 
    "addedOn" : ISODate("2017-06-29T09:08:38.980+0000"), 
    "__v" : NumberInt(0)
}
